Biostat 203B Homework 4 (Draft)
…
# Normally wouldnt drop all these but need space in order for it to run
drops <- c("first_careunit","last_careunit", "intime", "outtime", "los", 
           "admittime", "dischtime", "deathtime", "admission_type", 
           "admission_location", "discharge_location", "insurance", "language",
           "days_death", "arterial_blood_pressure_mean",
           "arterial_blood_pressure_systolic", "lactate", "dod", 
           "anchor_year_group", "anchor_year", "anchor_age", 
           "hospital_expire_flag", "edouttime", "edregtime", "hadm_id", 
           "stay_id")
icu_coh_tble <- icu_coh[ , !(names(icu_coh) %in% drops)]
print(icu_coh_tble)

## # A tibble: 50,048 x 21
##    subject_id marital_status ethnicity gender bicarbonate calcium chloride
##         <int> <chr>          <chr>     <chr>        <dbl>   <dbl>    <dbl>
##  1   10000980 MARRIED        BLACK/AF F               23     9.2      103
##  2   10004733 SINGLE         UNKNOWN   M               24     9.5      109
##  3   10006821 MARRIED        WHITE     F               19     8        107
##  4   10009628 MARRIED        HISPANIC M               23     7.5      109
##  5   10012261 MARRIED        BLACK/AF M               26     9.7      103
##  6   10012552 MARRIED        UNKNOWN   M               23     8.4      113
##  7   10013419 SINGLE         WHITE     M               26     7.7      107
##  8   10014610 MARRIED        BLACK/AF M               19     8.2      108
##  9   10016742 SINGLE         BLACK/AF F               33    10        103
## 10   10017308 MARRIED        WHITE     F               21     9        106
## #  with 50,038 more rows, and 14 more variables: creatinine <dbl>,
## #   glucose <dbl>, magnesium <dbl>, potassium <dbl>, sodium <dbl>,
## #   hematocrit <dbl>, wbc <dbl>, age_adm <dbl>, heart_rate <dbl>,
## #   non_invasive_blood_pressure_systolic <dbl>,
## #   non_invasive_blood_pressure_mean <dbl>, respiratory_rate <dbl>,
## #   temperature_fahrenheit <dbl>, died_30days <dbl>
…
