Biostat 203B Homework 2
…
##   dischtime = col_datetime(format = ""),
##   deathtime = col_datetime(format = ""),
##   admission_type = col_character(),
##   admission_location = col_character(),
##   discharge_location = col_character(),
##   insurance = col_character(),
##   language = col_character(),
##   marital_status = col_character(),
##   ethnicity = col_character(),
##   edregtime = col_datetime(format = ""),
##   edouttime = col_datetime(format = ""),
##   hospital_expire_flag = col_double()
## )

## # A tibble: 524,520 x 15
##    subject_id hadm_id admittime           dischtime          
##         <dbl>   <dbl> <dttm>              <dttm>             
##  1   12427812  2.16e7 2184-01-06 11:51:00 2184-01-10 11:45:00
##  2   14029832  2.21e7 2120-01-18 01:28:00 2120-01-20 16:13:00
##  3   14495017  2.25e7 2175-01-28 15:41:00 2175-01-29 16:00:00
##  4   13676048  2.39e7 2193-01-19 05:27:00 2193-01-24 18:59:00
##  5   13831972  2.78e7 2131-01-27 04:03:00 2131-01-27 05:39:00
##  6   18523038  2.54e7 2142-08-26 17:14:00 2142-08-27 10:00:00
##  7   16705931  2.06e7 2174-10-24 11:30:00 2174-10-24 18:45:00
##  8   19963742  2.50e7 2171-07-04 15:58:00 2171-07-05 13:37:00
##  9   10903424  2.26e7 2181-01-31 13:09:00 2181-01-31 13:42:00
## 10   15030422  2.20e7 2149-09-21 23:54:00 2149-09-22 03:59:00
## #  with 524,510 more rows, and 11 more variables: deathtime <dttm>,
## #   admission_type <chr>, admission_location <chr>, discharge_location <chr>,
## #   insurance <chr>, language <chr>, marital_status <chr>, ethnicity <chr>,
## #   edregtime <dttm>, edouttime <dttm>, hospital_expire_flag <dbl>
…
## # A tibble: 6 x 8
##   subject_id hadm_id stay_id first_careunit last_careunit intime             
##        <dbl>   <dbl>   <dbl> <chr>          <chr>         <dttm>             
## 1   17823467  2.76e7  3.60e7 Coronary Care Coronary Car 2138-05-09 05:08:00
## 2   15772648  2.61e7  3.96e7 Trauma SICU ( Trauma SICU  2146-06-18 18:35:00
## 3   13713711  2.58e7  3.64e7 Trauma SICU ( Trauma SICU  2157-09-15 15:30:00
## 4   13173210  2.23e7  3.82e7 Coronary Care Coronary Car 2178-02-12 17:13:50
## 5   10213765  2.85e7  3.98e7 Trauma SICU ( Trauma SICU  2113-04-10 14:11:00
## 6   17530304  2.18e7  3.58e7 Trauma SICU ( Trauma SICU  2129-03-21 07:09:00
## #  with 2 more variables: outtime <dttm>, los <dbl>

unique(df[c("stay_id")])

## # A tibble: 69,619 x 1
##     stay_id
##       <dbl>
##  1 35964304
##  2 39637383
##  3 36363748
##  4 38210858
##  5 39765853
##  6 35848367
##  7 37788595
##  8 39262919
##  9 36989766
## 10 34766377
## #  with 69,609 more rows

## Number of unique stay id's
n_distinct(df[c("stay_id")])

## [1] 69619

unique(df[c("subject_id")])

## # A tibble: 50,048 x 1
##    subject_id
##         <dbl>
##  1   17823467
##  2   15772648
##  3   13713711
##  4   13173210
##  5   10213765
##  6   17530304
##  7   10297774
##  8   16766597
##  9   17684317
## 10   15693895
## #  with 50,038 more rows
…
d_items.csv.gz (https://mimic-iv.mit.edu/docs/datasets/icu/d_items/) is the dictionary for the itemid in chartevents.csv.gz.

system.time(chartevents_tble <- fread("/usr/203b-data/mimic-iv-derived-data/chartevents_filtered_itemid.csv.gz",header = FALSE, col.names = c("subject_id",
              "hadm_id",
              "stay_id",
              "charttime",
              "itemid",
              "valuenum"),
              nThread = 4) %>%
              as_tibble()%>%
              mutate_at(c("subject_id", "hadm_id", "stay_id", "itemid"), as.numeric) %>%
              mutate(charttime = ymd_hms(charttime)) %>%
              print(width = Inf))

## # A tibble: 30,095,996 x 6
##    subject_id  hadm_id  stay_id charttime           itemid valuenum
##         <dbl>    <dbl>    <dbl> <dttm>               <dbl>    <dbl>
##  1   10003700 28623837 35053963 2165-04-24 05:28:00 220179    152  
##  2   10003700 28623837 35053963 2165-04-24 05:28:00 220181    110  
##  3   10003700 28623837 35053963 2165-04-24 05:30:00 220045     65  
##  4   10003700 28623837 35053963 2165-04-24 05:30:00 220210     14  
##  5   10003700 28623837 35053963 2165-04-24 05:38:00 223761     97.6
##  6   10003700 28623837 35053963 2165-04-24 06:00:00 220045     56  
##  7   10003700 28623837 35053963 2165-04-24 06:00:00 220179    126  
##  8   10003700 28623837 35053963 2165-04-24 06:00:00 220181     88  
##  9   10003700 28623837 35053963 2165-04-24 06:00:00 220210     14  
## 10   10003700 28623837 35053963 2165-04-24 06:09:00 220045     55  
## #  with 30,095,986 more rows
…
